[
  {
    "id": "1000",
    "title": "Mumbai Experience",
    "updateDate": "2018-03-27",
    "articleRoute": "mumbai-experience",
    "imageRoute": "mumbai-experience/gateway-of-india-medium.jpg",
    "imageAltValue": "Gateway of India",
    "imgObjectPosition": "left top",
    "description": "Lorem ipsum dolor sit amet, consectetur adipiscing elit, sed do eiusmod tempor incididunt ut labore et dolore magna aliqua. Ut enim ad minim veniam, quis nostrud exercitation ullamco laboris nisi ut aliquip ex ea commodo consequat. Duis aute irure dolor in reprehenderit..."
  },
  {
    "id": "1001",
    "title": "Athirappilly Falls",
    "updateDate": "2018-03-27",
    "articleRoute": "athirappilly-falls",
    "imageRoute": "athirappilly-falls/athirappilly-falls-top-1-medium.jpg",
    "imageAltValue": "Athirappilly falls top view",
    "imgObjectPosition": "left top",
    "description": "Lorem ipsum dolor sit amet, consectetur adipiscing elit, sed do eiusmod tempor incididunt ut labore et dolore magna aliqua. Ut enim ad minim veniam, quis nostrud exercitation ullamco laboris nisi ut aliquip ex ea commodo consequat. Duis aute irure dolor in reprehenderit..."
  }
]